{
    "status": true,
    "message": "OK",
    "data": {
        "count": "1711",
        "docs": [
            {
                "name": "Joko Widodo",
                "img": "/images/joko_widodo.jpg",
                "statement_count": "619",
                "neg": "92",
                "pos": "321",
                "neu": "206",
                "id": "joko+widodo"
            },
            {
                "name": "Tjahjo Kumolo",
                "img": "/images/Tjahjo_Kumolo.jpg",
                "statement_count": "596",
                "neg": "154",
                "pos": "234",
                "neu": "208",
                "id": "tjahjo+kumolo"
            },
            {
                "name": "Bambang Soesatyo",
                "img": "/images/Bambang_Soesatyo.jpg",
                "statement_count": "588",
                "neg": "174",
                "pos": "277",
                "neu": "137",
                "id": "bambang+soesatyo"
            },
            {
                "name": "Budi Karya Sumadi",
                "img": "/images/budi-karya-sumadi.jpg",
                "statement_count": "564",
                "neg": "130",
                "pos": "277",
                "neu": "157",
                "id": "budi+karya+sumadi"
            },
            {
                "name": "Rudiantara",
                "img": "/images/Rudiantara.jpg",
                "statement_count": "524",
                "neg": "174",
                "pos": "250",
                "neu": "100",
                "id": "rudiantara"
            }
        ]
    }
}